[gd_scene load_steps=3 format=2]

[ext_resource path="res://house/FurniturePoint.gd" type="Script" id=1]
[ext_resource path="res://assets/red.png" type="Texture" id=2]

[node name="FurniturePoint" type="Node2D"]
script = ExtResource( 1 )

[node name="Sprite" type="Sprite" parent="."]
texture = ExtResource( 2 )

